﻿{
    "lang": {
        "welcomeToSanguo": "请主公选择武将开始征程。新手引导完成后有特殊礼物奉上，一定要领哦！",
        "enterSanguo": "进入三国",
        "account": "账号",
        "password": "密码",
        "passwordTip": "请输入您的密码",
        "accountTip": "请输入您的账号",
        "login": "登录",
        "register": "注册",
        "newRegisterTip": "新用户请输入 账号(支持中文)/密码",
        "newRegisterClickTip": "点击“注册”进入游戏",
        "loginAccount": "账户登录"
    }, 
    "langType": "simpleChinese"
}