info face="CharcoalCY" size=24 bold=0 italic=0 charset="" unicode=0 stretchH=100 smooth=1 aa=1 padding=0,0,0,0 spacing=0,0
common lineHeight=32 base=24 scaleW=256 scaleH=256 pages=1 packed=0
page id=0 file="FightNumberLvSe.png"
chars count=95
char id=106 x=0 y=0 width=13 height=28 xoffset=-2 yoffset=3 xadvance=9 page=0 chnl=0 letter="j"
char id=81 x=13 y=0 width=19 height=27 xoffset=1 yoffset=4 xadvance=18 page=0 chnl=0 letter="Q"
char id=123 x=32 y=0 width=12 height=27 xoffset=0 yoffset=4 xadvance=10 page=0 chnl=0 letter="{"
char id=125 x=44 y=0 width=12 height=27 xoffset=0 yoffset=4 xadvance=10 page=0 chnl=0 letter="}"
char id=91 x=56 y=0 width=11 height=27 xoffset=1 yoffset=4 xadvance=10 page=0 chnl=0 letter="["
char id=93 x=67 y=0 width=11 height=27 xoffset=1 yoffset=4 xadvance=10 page=0 chnl=0 letter="]"
char id=124 x=78 y=0 width=8 height=27 xoffset=2 yoffset=5 xadvance=9 page=0 chnl=0 letter="|"
char id=36 x=86 y=0 width=17 height=26 xoffset=1 yoffset=3 xadvance=16 page=0 chnl=0 letter="$"
char id=40 x=103 y=0 width=13 height=26 xoffset=1 yoffset=3 xadvance=12 page=0 chnl=0 letter="("
char id=41 x=116 y=0 width=12 height=26 xoffset=1 yoffset=3 xadvance=12 page=0 chnl=0 letter=")"
char id=47 x=128 y=0 width=18 height=25 xoffset=-1 yoffset=4 xadvance=13 page=0 chnl=0 letter="/"
char id=92 x=146 y=0 width=18 height=25 xoffset=-1 yoffset=4 xadvance=13 page=0 chnl=0 letter="\"
char id=37 x=164 y=0 width=24 height=24 xoffset=1 yoffset=3 xadvance=23 page=0 chnl=0 letter="%"
char id=64 x=188 y=0 width=22 height=24 xoffset=1 yoffset=3 xadvance=22 page=0 chnl=0 letter="@"
char id=38 x=210 y=0 width=21 height=24 xoffset=1 yoffset=3 xadvance=19 page=0 chnl=0 letter="&"
char id=71 x=231 y=0 width=19 height=24 xoffset=1 yoffset=3 xadvance=18 page=0 chnl=0 letter="G"
char id=79 x=0 y=28 width=19 height=24 xoffset=1 yoffset=3 xadvance=18 page=0 chnl=0 letter="O"
char id=85 x=19 y=28 width=18 height=24 xoffset=2 yoffset=3 xadvance=18 page=0 chnl=0 letter="U"
char id=100 x=37 y=28 width=18 height=24 xoffset=1 yoffset=3 xadvance=17 page=0 chnl=0 letter="d"
char id=103 x=55 y=28 width=18 height=24 xoffset=1 yoffset=7 xadvance=17 page=0 chnl=0 letter="g"
char id=67 x=73 y=28 width=17 height=24 xoffset=1 yoffset=3 xadvance=16 page=0 chnl=0 letter="C"
char id=83 x=90 y=28 width=17 height=24 xoffset=1 yoffset=3 xadvance=16 page=0 chnl=0 letter="S"
char id=98 x=107 y=28 width=17 height=24 xoffset=2 yoffset=3 xadvance=17 page=0 chnl=0 letter="b"
char id=50 x=124 y=28 width=17 height=24 xoffset=1 yoffset=3 xadvance=16 page=0 chnl=0 letter="2"
char id=51 x=141 y=28 width=17 height=24 xoffset=1 yoffset=3 xadvance=16 page=0 chnl=0 letter="3"
char id=53 x=158 y=28 width=17 height=24 xoffset=1 yoffset=3 xadvance=16 page=0 chnl=0 letter="5"
char id=54 x=175 y=28 width=17 height=24 xoffset=1 yoffset=3 xadvance=16 page=0 chnl=0 letter="6"
char id=56 x=192 y=28 width=17 height=24 xoffset=1 yoffset=3 xadvance=16 page=0 chnl=0 letter="8"
char id=57 x=209 y=28 width=17 height=24 xoffset=1 yoffset=3 xadvance=16 page=0 chnl=0 letter="9"
char id=48 x=226 y=28 width=17 height=24 xoffset=1 yoffset=3 xadvance=16 page=0 chnl=0 letter="0"
char id=63 x=0 y=52 width=15 height=24 xoffset=0 yoffset=3 xadvance=13 page=0 chnl=0 letter="?"
char id=102 x=15 y=52 width=14 height=24 xoffset=0 yoffset=3 xadvance=10 page=0 chnl=0 letter="f"
char id=74 x=29 y=52 width=13 height=24 xoffset=1 yoffset=3 xadvance=13 page=0 chnl=0 letter="J"
char id=121 x=42 y=52 width=20 height=23 xoffset=0 yoffset=8 xadvance=16 page=0 chnl=0 letter="y"
char id=113 x=62 y=52 width=18 height=23 xoffset=1 yoffset=8 xadvance=17 page=0 chnl=0 letter="q"
char id=116 x=80 y=52 width=14 height=23 xoffset=0 yoffset=4 xadvance=11 page=0 chnl=0 letter="t"
char id=87 x=94 y=52 width=29 height=22 xoffset=-0 yoffset=5 xadvance=25 page=0 chnl=0 letter="W"
char id=77 x=123 y=52 width=24 height=22 xoffset=2 yoffset=5 xadvance=24 page=0 chnl=0 letter="M"
char id=65 x=147 y=52 width=21 height=22 xoffset=0 yoffset=5 xadvance=18 page=0 chnl=0 letter="A"
char id=86 x=168 y=52 width=21 height=22 xoffset=-0 yoffset=5 xadvance=17 page=0 chnl=0 letter="V"
char id=89 x=189 y=52 width=21 height=22 xoffset=-0 yoffset=5 xadvance=18 page=0 chnl=0 letter="Y"
char id=35 x=210 y=52 width=21 height=22 xoffset=0 yoffset=5 xadvance=18 page=0 chnl=0 letter="#"
char id=88 x=231 y=52 width=20 height=22 xoffset=-0 yoffset=5 xadvance=16 page=0 chnl=0 letter="X"
char id=75 x=0 y=76 width=19 height=22 xoffset=2 yoffset=5 xadvance=18 page=0 chnl=0 letter="K"
char id=68 x=19 y=76 width=18 height=22 xoffset=2 yoffset=5 xadvance=18 page=0 chnl=0 letter="D"
char id=78 x=37 y=76 width=18 height=22 xoffset=2 yoffset=5 xadvance=18 page=0 chnl=0 letter="N"
char id=52 x=55 y=76 width=18 height=22 xoffset=0 yoffset=5 xadvance=16 page=0 chnl=0 letter="4"
char id=66 x=73 y=76 width=17 height=22 xoffset=2 yoffset=5 xadvance=17 page=0 chnl=0 letter="B"
char id=72 x=90 y=76 width=17 height=22 xoffset=2 yoffset=5 xadvance=18 page=0 chnl=0 letter="H"
char id=82 x=107 y=76 width=17 height=22 xoffset=2 yoffset=5 xadvance=17 page=0 chnl=0 letter="R"
char id=90 x=124 y=76 width=17 height=22 xoffset=0 yoffset=5 xadvance=15 page=0 chnl=0 letter="Z"
char id=107 x=141 y=76 width=17 height=22 xoffset=2 yoffset=5 xadvance=16 page=0 chnl=0 letter="k"
char id=112 x=158 y=76 width=17 height=22 xoffset=2 yoffset=9 xadvance=17 page=0 chnl=0 letter="p"
char id=80 x=175 y=76 width=16 height=22 xoffset=2 yoffset=5 xadvance=16 page=0 chnl=0 letter="P"
char id=84 x=191 y=76 width=16 height=22 xoffset=0 yoffset=5 xadvance=14 page=0 chnl=0 letter="T"
char id=104 x=207 y=76 width=16 height=22 xoffset=2 yoffset=5 xadvance=17 page=0 chnl=0 letter="h"
char id=55 x=223 y=76 width=16 height=22 xoffset=1 yoffset=5 xadvance=16 page=0 chnl=0 letter="7"
char id=69 x=239 y=76 width=15 height=22 xoffset=2 yoffset=5 xadvance=16 page=0 chnl=0 letter="E"
char id=70 x=0 y=98 width=15 height=22 xoffset=2 yoffset=5 xadvance=15 page=0 chnl=0 letter="F"
char id=76 x=15 y=98 width=15 height=22 xoffset=2 yoffset=5 xadvance=14 page=0 chnl=0 letter="L"
char id=49 x=30 y=98 width=14 height=22 xoffset=2 yoffset=5 xadvance=16 page=0 chnl=0 letter="1"
char id=59 x=44 y=98 width=11 height=22 xoffset=0 yoffset=8 xadvance=9 page=0 chnl=0 letter=";"
char id=73 x=55 y=98 width=9 height=22 xoffset=2 yoffset=5 xadvance=11 page=0 chnl=0 letter="I"
char id=33 x=64 y=98 width=9 height=22 xoffset=2 yoffset=5 xadvance=10 page=0 chnl=0 letter="!"
char id=105 x=73 y=98 width=8 height=22 xoffset=2 yoffset=5 xadvance=9 page=0 chnl=0 letter="i"
char id=108 x=81 y=98 width=8 height=22 xoffset=2 yoffset=5 xadvance=9 page=0 chnl=0 letter="l"
char id=111 x=89 y=98 width=18 height=20 xoffset=1 yoffset=7 xadvance=17 page=0 chnl=0 letter="o"
char id=101 x=107 y=98 width=17 height=20 xoffset=1 yoffset=7 xadvance=16 page=0 chnl=0 letter="e"
char id=99 x=124 y=98 width=16 height=20 xoffset=1 yoffset=7 xadvance=14 page=0 chnl=0 letter="c"
char id=115 x=140 y=98 width=14 height=20 xoffset=1 yoffset=7 xadvance=13 page=0 chnl=0 letter="s"
char id=119 x=154 y=98 width=27 height=19 xoffset=-0 yoffset=8 xadvance=23 page=0 chnl=0 letter="w"
char id=118 x=181 y=98 width=20 height=19 xoffset=-0 yoffset=8 xadvance=16 page=0 chnl=0 letter="v"
char id=120 x=201 y=98 width=20 height=19 xoffset=-0 yoffset=8 xadvance=16 page=0 chnl=0 letter="x"
char id=97 x=221 y=98 width=17 height=19 xoffset=1 yoffset=8 xadvance=16 page=0 chnl=0 letter="a"
char id=122 x=238 y=98 width=16 height=19 xoffset=1 yoffset=8 xadvance=14 page=0 chnl=0 letter="z"
char id=58 x=0 y=120 width=8 height=19 xoffset=1 yoffset=8 xadvance=9 page=0 chnl=0 letter=":"
char id=109 x=8 y=120 width=24 height=18 xoffset=2 yoffset=9 xadvance=25 page=0 chnl=0 letter="m"
char id=110 x=32 y=120 width=16 height=18 xoffset=2 yoffset=9 xadvance=17 page=0 chnl=0 letter="n"
char id=117 x=48 y=120 width=16 height=18 xoffset=2 yoffset=9 xadvance=17 page=0 chnl=0 letter="u"
char id=114 x=64 y=120 width=12 height=18 xoffset=2 yoffset=9 xadvance=12 page=0 chnl=0 letter="r"
char id=60 x=76 y=120 width=15 height=17 xoffset=2 yoffset=8 xadvance=16 page=0 chnl=0 letter="<"
char id=62 x=91 y=120 width=15 height=17 xoffset=2 yoffset=8 xadvance=16 page=0 chnl=0 letter=">"
char id=43 x=106 y=120 width=16 height=16 xoffset=1 yoffset=8 xadvance=16 page=0 chnl=0 letter="+"
char id=42 x=122 y=120 width=16 height=16 xoffset=2 yoffset=3 xadvance=16 page=0 chnl=0 letter="*"
char id=94 x=138 y=120 width=17 height=14 xoffset=1 yoffset=5 xadvance=16 page=0 chnl=0 letter="^"
char id=61 x=155 y=120 width=16 height=14 xoffset=2 yoffset=9 xadvance=16 page=0 chnl=0 letter="="
char id=44 x=171 y=120 width=11 height=12 xoffset=0 yoffset=18 xadvance=9 page=0 chnl=0 letter=","
char id=126 x=182 y=120 width=16 height=10 xoffset=1 yoffset=11 xadvance=16 page=0 chnl=0 letter="~"
char id=34 x=198 y=120 width=13 height=10 xoffset=2 yoffset=5 xadvance=14 page=0 chnl=0 letter="""
char id=96 x=211 y=120 width=12 height=10 xoffset=0 yoffset=1 xadvance=9 page=0 chnl=0 letter="`"
char id=39 x=223 y=120 width=8 height=10 xoffset=2 yoffset=5 xadvance=9 page=0 chnl=0 letter="'"
char id=46 x=231 y=120 width=8 height=8 xoffset=2 yoffset=19 xadvance=9 page=0 chnl=0 letter="."
char id=45 x=239 y=120 width=12 height=7 xoffset=1 yoffset=13 xadvance=10 page=0 chnl=0 letter="-"
char id=95 x=0 y=139 width=17 height=6 xoffset=0 yoffset=25 xadvance=14 page=0 chnl=0 letter="_"
char id=32 x=17 y=139 width=0 height=0 xoffset=6 yoffset=44 xadvance=8 page=0 chnl=0 letter="space"
